{
"Files": [
    {"StartPosition": "beggingin", "Path":"/tmp/dat"}
    ],
"LineProcessors": 2,
"ESSenders": 3,
"ESBulkSize": 500,
"LogLevel": "DEBUG",
"IndexFormat": "logstash-2006.01.02",
"ESConfig": {
    "User": "es_aggregator",
    "Password": "qwerty",
    "URL": "http://example.com"
}
}
